<svg viewBox="0 0 50 50" xmlns="http://www.w3.org/2000/svg">
  <!-- arrow -->
  <!-- from https://developer.mozilla.org/en-US/docs/Web/SVG/Element/marker -->
  <defs>
    <!-- arrowhead marker definition -->
    <marker id="arrow" viewBox="0 0 10 10" refX="5" refY="5"
	    markerWidth="6" markerHeight="6"
	    orient="auto-start-reverse">
      <path d="M 0 0 L 10 5 L 0 10 z" />
    </marker>
  </defs>
  <path d="M 25 50 v -45" fill="none" stroke="black" stroke-width="2" marker-end="url(#arrow)" />
  <!-- end arrow -->
</svg>
