{
  "2019-01-01": 2,
  "2019-01-02": 1,
  "2019-01-03": 1,
  "2019-01-04": 1,
  "2019-01-05": 4,
  "2019-01-06": 3,
  "2019-01-07": 2,
  "2019-01-08": 2,
  "2019-01-09": 2,
  "2019-01-10": 2,
  "2019-01-11": 3,
  "2019-01-12": 1,
  "2019-01-13": 5,
  "2019-01-14": 7,
  "2019-01-15": 6,
  "2019-01-16": 1,
  "2019-01-17": 5,
  "2019-01-18": 4,
  "2019-01-19": 6,
  "2019-01-20": 4,
  "2019-01-21": 3,
  "2019-01-22": 4,
  "2019-01-23": 5,
  "2019-01-24": 2,
  "2019-01-25": 1,
  "2019-01-26": 4,
  "2019-01-27": 1,
  "2019-01-28": 2,
  "2019-01-29": 3,
  "2019-01-30": 1,
  "2019-01-31": 2,
  "2019-02-01": 6,
  "2019-02-02": 2,
  "2019-02-03": 4,
  "2019-02-04": 1,
  "2019-02-05": 1,
  "2019-02-06": 1,
  "2019-02-07": 1,
  "2019-02-08": 1,
  "2019-02-09": 7,
  "2019-02-10": 1,
  "2019-02-11": 4,
  "2019-02-12": 10,
  "2019-02-13": 10,
  "2019-02-14": 1,
  "2019-02-15": 10,
  "2019-02-16": 5,
  "2019-02-17": 1,
  "2019-02-18": 4,
  "2019-02-19": 6,
  "2019-02-20": 2,
  "2019-02-21": 11,
  "2019-02-22": 6,
  "2019-02-23": 4,
  "2019-02-24": 9,
  "2019-02-25": 3,
  "2019-02-26": 10,
  "2019-02-27": 6,
  "2019-02-28": 10,
  "2019-03-01": 10,
  "2019-03-02": 2,
  "2019-03-03": 12,
  "2019-03-04": 20,
  "2019-03-05": 5,
  "2019-03-06": 5,
  "2019-03-07": 4,
  "2019-03-08": 8,
  "2019-03-09": 3,
  "2019-03-10": 3,
  "2019-03-11": 3,
  "2019-03-12": 2,
  "2019-03-13": 2,
  "2019-03-14": 3,
  "2019-03-15": 5,
  "2019-03-16": 2,
  "2019-03-17": 3,
  "2019-03-18": 2,
  "2019-03-19": 6,
  "2019-03-20": 6,
  "2019-03-21": 3,
  "2019-03-22": 4,
  "2019-03-23": 2,
  "2019-03-24": 3,
  "2019-03-25": 2,
  "2019-03-26": 5,
  "2019-03-27": 3,
  "2019-03-28": 2,
  "2019-03-29": 2,
  "2019-03-30": 1,
  "2019-03-31": 1,
  "2019-04-01": 1,
  "2019-04-02": 1,
  "2019-04-03": 1,
  "2019-04-04": 1,
  "2019-04-05": 1,
  "2019-04-06": 1,
  "2019-04-07": 1,
  "2019-04-08": 1,
  "2019-04-09": 1,
  "2019-04-10": 1,
  "2019-04-11": 2,
  "2019-04-12": 1,
  "2019-04-13": 2,
  "2019-04-14": 1,
  "2019-04-15": 1,
  "2019-04-16": 7,
  "2019-04-17": 2,
  "2019-04-18": 6,
  "2019-04-19": 6,
  "2019-04-20": 2,
  "2019-04-21": 2,
  "2019-04-22": 1,
  "2019-04-23": 1,
  "2019-04-24": 15,
  "2019-04-25": 7,
  "2019-04-26": 1,
  "2019-04-27": 4,
  "2019-04-28": 2,
  "2019-04-29": 1,
  "2019-04-30": 6,
  "2019-05-01": 2,
  "2019-05-02": 1,
  "2019-05-03": 1
}
